CPU.vcd
$date
	Mon Dec 14 00:55:33 2020
$end
$version
	Icarus Verilog
$end
$timescale
	1s
$end
$scope module TestBench $end
$var reg 1 ! Clk $end
$var reg 1 " Reset $end
$var reg 1 # Start $end
$var integer 32 $ counter [31:0] $end
$var integer 32 % flush [31:0] $end
$var integer 32 & i [31:0] $end
$var integer 32 ' outfile [31:0] $end
$var integer 32 ( stall [31:0] $end
$scope module CPU $end
$var wire 1 ! clk_i $end
$var wire 1 " rst_i $end
$var wire 1 # start_i $end
$var wire 32 ) PC_addr [31:0] $end
$var wire 32 * IFID_inst_o [31:0] $end
$var wire 32 + IFID_addr_o [31:0] $end
$scope module ALU $end
$var wire 32 , data2_i [31:0] $end
$var wire 32 - data1_i [31:0] $end
$var wire 1 . Zero_o $end
$var wire 4 / ALUCtrl_i [3:0] $end
$var reg 32 0 data_o [31:0] $end
$upscope $end
$scope module ALU_Control $end
$var wire 10 1 funct_i [9:0] $end
$var wire 2 2 ALUOp_i [1:0] $end
$var reg 4 3 ALUCtrl_o [3:0] $end
$upscope $end
$scope module Add_Branch_addr $end
$var wire 32 4 data1_i [31:0] $end
$var wire 32 5 data_o [31:0] $end
$var wire 32 6 data2_i [31:0] $end
$upscope $end
$scope module Add_PC $end
$var wire 32 7 data2_i [31:0] $end
$var wire 32 8 data_o [31:0] $end
$var wire 32 9 data1_i [31:0] $end
$upscope $end
$scope module Branch_And $end
$var wire 1 : data_o $end
$var wire 1 ; data2_i $end
$var wire 1 < data1_i $end
$upscope $end
$scope module Control $end
$var wire 7 = Op_i [6:0] $end
$var wire 1 > NoOp_i $end
$var reg 2 ? ALUOp_o [1:0] $end
$var reg 1 @ ALUSrc_o $end
$var reg 1 < Branch_o $end
$var reg 1 A MemRead_o $end
$var reg 1 B MemWrite_o $end
$var reg 1 C MemtoReg_o $end
$var reg 1 D RegWrite_o $end
$upscope $end
$scope module Data_Memory $end
$var wire 1 ! clk_i $end
$var wire 32 E data_o [31:0] $end
$var wire 32 F data_i [31:0] $end
$var wire 32 G addr_i [31:0] $end
$var wire 1 H MemWrite_i $end
$var wire 1 I MemRead_i $end
$upscope $end
$scope module EXMEM $end
$var wire 32 J ALUdata_i [31:0] $end
$var wire 1 ! clk_i $end
$var wire 1 # start_i $end
$var wire 1 K RegWrite_i $end
$var wire 5 L RegWaddr_i [4:0] $end
$var wire 1 M MemtoReg_i $end
$var wire 1 N MemWrite_i $end
$var wire 32 O MemWdata_i [31:0] $end
$var wire 1 P MemRead_i $end
$var reg 32 Q ALUdata_o [31:0] $end
$var reg 1 I MemRead_o $end
$var reg 32 R MemWdata_o [31:0] $end
$var reg 1 H MemWrite_o $end
$var reg 1 S MemtoReg_o $end
$var reg 5 T RegWaddr_o [4:0] $end
$var reg 1 U RegWrite_o $end
$upscope $end
$scope module Forward $end
$var wire 5 V EXMEM_Rd_i [4:0] $end
$var wire 1 U EXMEM_RegWrite_i $end
$var wire 2 W ForwardA_o [1:0] $end
$var wire 2 X ForwardB_o [1:0] $end
$var wire 1 Y MEMWB_RegWrite_i $end
$var wire 5 Z MEMWB_Rd_i [4:0] $end
$var wire 5 [ IDEX_RS2_i [4:0] $end
$var wire 5 \ IDEX_RS1_i [4:0] $end
$var reg 2 ] ForwardA_reg [1:0] $end
$var reg 2 ^ ForwardB_reg [1:0] $end
$upscope $end
$scope module Hazard_Detection $end
$var wire 5 _ IFID_RS1_i [4:0] $end
$var wire 5 ` IFID_RS2_i [4:0] $end
$var wire 5 a IDEX_RD_i [4:0] $end
$var wire 1 P IDEX_MemRead_i $end
$var reg 1 > NoOp_o $end
$var reg 1 b PCWrite_o $end
$var reg 1 c Stall_o $end
$upscope $end
$scope module IDEX $end
$var wire 2 d ALUOp_i [1:0] $end
$var wire 1 @ ALUSrc_i $end
$var wire 1 A MemRead_i $end
$var wire 1 B MemWrite_i $end
$var wire 1 C MemtoReg_i $end
$var wire 5 e RDaddr_i [4:0] $end
$var wire 5 f RS1addr_i [4:0] $end
$var wire 5 g RS2addr_i [4:0] $end
$var wire 1 D RegWrite_i $end
$var wire 1 ! clk_i $end
$var wire 10 h funct_7_3_i [9:0] $end
$var wire 1 # start_i $end
$var wire 32 i RS2data_i [31:0] $end
$var wire 32 j RS1data_i [31:0] $end
$var wire 32 k ImmGen_i [31:0] $end
$var reg 2 l ALUOp_o [1:0] $end
$var reg 1 m ALUSrc_o $end
$var reg 32 n ImmGen_o [31:0] $end
$var reg 1 P MemRead_o $end
$var reg 1 N MemWrite_o $end
$var reg 1 M MemtoReg_o $end
$var reg 5 o RDaddr_o [4:0] $end
$var reg 5 p RS1addr_o [4:0] $end
$var reg 32 q RS1data_o [31:0] $end
$var reg 5 r RS2addr_o [4:0] $end
$var reg 32 s RS2data_o [31:0] $end
$var reg 1 K RegWrite_o $end
$var reg 10 t funct_7_3_o [9:0] $end
$upscope $end
$scope module IFID $end
$var wire 1 : Flush_i $end
$var wire 1 c Stall_i $end
$var wire 1 ! clk_i $end
$var wire 1 # start_i $end
$var wire 32 u inst_i [31:0] $end
$var wire 32 v addr_i [31:0] $end
$var reg 32 w addr_o [31:0] $end
$var reg 32 x inst_o [31:0] $end
$upscope $end
$scope module ImmGen $end
$var wire 1 ! clk_i $end
$var wire 32 y data_i [31:0] $end
$var wire 7 z opcode [6:0] $end
$var reg 32 { data_o [31:0] $end
$upscope $end
$scope module Instruction_Memory $end
$var wire 32 | instr_o [31:0] $end
$var wire 32 } addr_i [31:0] $end
$upscope $end
$scope module MEMWB $end
$var wire 32 ~ ALUdata_i [31:0] $end
$var wire 1 S MemtoReg_i $end
$var wire 32 !" ReadData_i [31:0] $end
$var wire 5 "" RegWaddr_i [4:0] $end
$var wire 1 U RegWrite_i $end
$var wire 1 ! clk_i $end
$var wire 1 # start_i $end
$var reg 32 #" ALUdata_o [31:0] $end
$var reg 1 $" MemtoReg_o $end
$var reg 32 %" ReadData_o [31:0] $end
$var reg 5 &" RegWaddr_o [4:0] $end
$var reg 1 Y RegWrite_o $end
$upscope $end
$scope module MUX_ALUSrc $end
$var wire 32 '" data2_i [31:0] $end
$var wire 1 m select_i $end
$var wire 32 (" data_o [31:0] $end
$var wire 32 )" data1_i [31:0] $end
$upscope $end
$scope module MUX_ALUSrc_RS1 $end
$var wire 32 *" data1_i [31:0] $end
$var wire 32 +" data3_i [31:0] $end
$var wire 2 ," select_i [1:0] $end
$var wire 32 -" data_o [31:0] $end
$var wire 32 ." data2_i [31:0] $end
$var reg 32 /" data_reg [31:0] $end
$upscope $end
$scope module MUX_ALUSrc_RS2 $end
$var wire 32 0" data1_i [31:0] $end
$var wire 32 1" data3_i [31:0] $end
$var wire 2 2" select_i [1:0] $end
$var wire 32 3" data_o [31:0] $end
$var wire 32 4" data2_i [31:0] $end
$var reg 32 5" data_reg [31:0] $end
$upscope $end
$scope module MUX_MemtoReg $end
$var wire 32 6" data1_i [31:0] $end
$var wire 32 7" data2_i [31:0] $end
$var wire 1 $" select_i $end
$var wire 32 8" data_o [31:0] $end
$upscope $end
$scope module MUX_PCSrc $end
$var wire 32 9" data1_i [31:0] $end
$var wire 32 :" data2_i [31:0] $end
$var wire 1 : select_i $end
$var wire 32 ;" data_o [31:0] $end
$upscope $end
$scope module PC $end
$var wire 1 b PCWrite_i $end
$var wire 1 ! clk_i $end
$var wire 32 <" pc_i [31:0] $end
$var wire 1 " rst_i $end
$var wire 1 # start_i $end
$var reg 32 =" pc_o [31:0] $end
$upscope $end
$scope module RS1_RS2_eq $end
$var wire 1 ; data_o $end
$var wire 32 >" data2_i [31:0] $end
$var wire 32 ?" data1_i [31:0] $end
$upscope $end
$scope module Registers $end
$var wire 5 @" RDaddr_i [4:0] $end
$var wire 32 A" RDdata_i [31:0] $end
$var wire 5 B" RS1addr_i [4:0] $end
$var wire 5 C" RS2addr_i [4:0] $end
$var wire 1 Y RegWrite_i $end
$var wire 1 ! clk_i $end
$var wire 32 D" RS2data_o [31:0] $end
$var wire 32 E" RS1data_o [31:0] $end
$upscope $end
$upscope $end
$upscope $end
$enddefinitions $end
#0
$dumpvars
b0 E"
b0 D"
b0 C"
b0 B"
b0 A"
b0 @"
b0 ?"
b0 >"
b0 ="
b100 <"
b100 ;"
b0 :"
b100 9"
b0 8"
b0 7"
b0 6"
b0 5"
b0 4"
b0 3"
b0 2"
b0 1"
b0 0"
b0 /"
b0 ."
b0 -"
b0 ,"
b0 +"
b0 *"
b0 )"
b0 ("
b0 '"
b0 &"
b0 %"
0$"
b0 #"
b0 ""
b0 !"
b0 ~
b0 }
b11000000000010100010011 |
b0 {
b0 z
b0 y
b0 x
b0 w
b0 v
b11000000000010100010011 u
b0 t
b0 s
b0 r
b0 q
b0 p
b0 o
b0 n
0m
b0 l
b0 k
b0 j
b0 i
b0 h
b0 g
b0 f
b0 e
b0 d
0c
1b
b0 a
b0 `
b0 _
b0 ^
b0 ]
b0 \
b0 [
b0 Z
0Y
b0 X
b0 W
b0 V
0U
b0 T
0S
b0 R
b0 Q
0P
b0 O
0N
0M
b0 L
0K
b0 J
0I
0H
b0 G
b0 F
b0 E
0D
0C
0B
0A
0@
b0 ?
0>
b0 =
0<
1;
0:
b0 9
b100 8
b100 7
b0 6
b0 5
b0 4
b110 3
b0 2
b0 1
b0 0
b110 /
0.
b0 -
b0 ,
b0 +
b0 *
b0 )
b0 (
b11 '
b100000 &
b0 %
b0 $
0#
1"
1!
$end
#12
1#
0"
#25
0!
#50
b1100 5
b1100 :"
b1100 4
1@
1D
b110 k
b110 {
b10011 z
b1010 e
b110 g
b10011 =
b110 C"
b110 `
b100000000010110010011 u
b100000000010110010011 |
b1000 ;"
b1000 <"
b11000000000010100010011 *
b11000000000010100010011 x
b11000000000010100010011 y
b1000 8
b1000 9"
b100 )
b100 9
b100 v
b100 }
b100 ="
b1 $
1!
#75
0!
#100
b10 4
b1 k
b1 {
1.
b110 0
b110 J
b110 ,
b110 ("
b1011 e
b1 g
b1 C"
b1 `
b100000000010010010011 u
b100000000010010010011 |
b1100 ;"
b1100 <"
b100000000010110010011 *
b100000000010110010011 x
b100000000010110010011 y
b110 5
b110 :"
b100 +
b100 6
b100 w
b1010 L
b1010 a
b1010 o
b110 [
b110 r
b110 n
b110 '"
1m
1K
b1100 8
b1100 9"
b1000 )
b1000 9
b1000 v
b1000 }
b1000 ="
b10 $
1!
#125
0!
#150
b1 0
b1 J
b1 ,
b1 ("
b1001 e
b10101101001000010010110011 u
b10101101001000010010110011 |
b10000 ;"
b10000 <"
b1010 T
b1010 V
b1010 ""
b110 G
b110 Q
b110 ~
b110 +"
b110 1"
1U
b1011 L
b1011 a
b1011 o
b1 [
b1 r
b1 n
b1 '"
b100000000010010010011 *
b100000000010010010011 x
b100000000010010010011 y
b1010 5
b1010 :"
b1000 +
b1000 6
b1000 w
b10000 8
b10000 9"
b1100 )
b1100 9
b1100 v
b1100 }
b1100 ="
b11 $
1!
#175
0!
#200
b1010110 4
0@
b10 ?
b10 d
b101011 k
b101011 {
b110011 z
b1011 g
b1001 f
b1000 h
b110011 =
b1011 C"
b1001 B"
b1011 `
b1001 _
b110 ."
b110 4"
b110 8"
b110 A"
b101011000010110010011 u
b101011000010110010011 |
b10100 ;"
b10100 <"
b10101101001000010010110011 *
b10101101001000010010110011 x
b10101101001000010010110011 y
b1100010 5
b1100010 :"
b1100 +
b1100 6
b1100 w
b1001 L
b1001 a
b1001 o
b1011 T
b1011 V
b1011 ""
b1 G
b1 Q
b1 ~
b1 +"
b1 1"
b1010 Z
b1010 &"
b1010 @"
b110 #"
b110 6"
1Y
b10100 8
b10100 9"
b10000 )
b10000 9
b10000 v
b10000 }
b10000 ="
b100 $
1!
#225
0!
#250
b1 O
b1 )"
b1 3"
b1 5"
b1 -
b1 -"
b1 /"
b10 4
1@
b0 ?
b0 d
b1 X
b1 2"
b1 ^
b10 W
b10 ,"
b10 ]
b1 k
b1 {
0;
0.
b1 j
b1 ?"
b1 E"
b1 0
b1 J
b1 ."
b1 4"
b1 8"
b1 A"
b1 ,
b1 ("
b101 /
b101 3
b10011 z
b1011 e
b1 g
b1011 f
b0 h
b10011 =
b1 C"
b1011 B"
b1 `
b1011 _
b1011000111000010011 u
b1011000111000010011 |
b11000 ;"
b11000 <"
b1011 Z
b1011 &"
b1011 @"
b1 #"
b1 6"
b1001 T
b1001 V
b1001 ""
b1011 [
b1011 r
b1001 \
b1001 p
b1000 1
b1000 t
b101011 n
b101011 '"
b10 2
b10 l
0m
b101011000010110010011 *
b101011000010110010011 x
b101011000010110010011 y
b10010 5
b10010 :"
b10000 +
b10000 6
b10000 w
b11000 8
b11000 9"
b10100 )
b10100 9
b10100 v
b10100 }
b10100 ="
b101 $
1!
#275
0!
#300
b0 4
b0 O
b0 )"
b0 3"
b0 5"
b0 k
b0 {
b0 X
b0 2"
b0 ^
b0 W
b0 ,"
b0 ]
b10 0
b10 J
b11100 e
b0 g
b0 C"
b0 `
b110 /
b110 3
b11111111111101011000111010010011 u
b11111111111101011000111010010011 |
b11100 ;"
b11100 <"
b1011000111000010011 *
b1011000111000010011 x
b1011000111000010011 y
b10100 5
b10100 :"
b10100 +
b10100 6
b10100 w
b1011 L
b1011 a
b1011 o
b1 [
b1 r
b1011 \
b1011 p
b0 1
b0 t
b1 n
b1 '"
b1 q
b1 *"
b0 2
b0 l
1m
b1 F
b1 R
b1001 Z
b1001 &"
b1001 @"
b11100 8
b11100 9"
b11000 )
b11000 9
b11000 v
b11000 }
b11000 ="
b110 $
1!
#325
0!
#350
b10 -
b10 -"
b10 /"
b11111111111111111111111111111110 4
b10 W
b10 ,"
b10 ]
b11111111111111111111111111111111 k
b11111111111111111111111111111111 {
1.
b10 0
b10 J
b0 ,
b0 ("
b11101 e
b11111 g
b1111111000 h
b11111 C"
b11111 `
b11111111111001011000111100010011 u
b11111111111001011000111100010011 |
b100000 ;"
b100000 <"
b0 F
b0 R
b1011 T
b1011 V
b1011 ""
b10 G
b10 Q
b10 ~
b10 +"
b10 1"
b11100 L
b11100 a
b11100 o
b0 [
b0 r
b0 n
b0 '"
b11111111111101011000111010010011 *
b11111111111101011000111010010011 x
b11111111111101011000111010010011 y
b10110 5
b10110 :"
b11000 +
b11000 6
b11000 w
b100000 8
b100000 9"
b11100 )
b11100 9
b11100 v
b11100 }
b11100 ="
b111 $
1!
#375
0!
#400
b11111111111111111111111111111100 4
b11111111111111111111111111111110 k
b11111111111111111111111111111110 {
b1 W
b1 ,"
b1 ]
b1 0
b1 J
b10 j
b10 ?"
b10 E"
b11110 e
b11110 g
b11110 C"
b11110 `
b11111111111111111111111111111111 ,
b11111111111111111111111111111111 ("
b10 ."
b10 4"
b10 8"
b10 A"
b101101010000010001100011 u
b101101010000010001100011 |
b100100 ;"
b100100 <"
b11111111111001011000111100010011 *
b11111111111001011000111100010011 x
b11111111111001011000111100010011 y
b11000 5
b11000 :"
b11100 +
b11100 6
b11100 w
b11101 L
b11101 a
b11101 o
b11111 [
b11111 r
b1111111000 1
b1111111000 t
b11111111111111111111111111111111 n
b11111111111111111111111111111111 '"
b11100 T
b11100 V
b11100 ""
b1011 Z
b1011 &"
b1011 @"
b10 #"
b10 6"
b100100 8
b100100 9"
b100000 )
b100000 9
b100000 v
b100000 }
b100000 ="
b1000 $
1!
#425
0!
#450
b1000 4
1<
0@
b1 ?
b1 d
0D
b0 W
b0 ,"
b0 ]
b100 k
b100 {
b110 j
b110 ?"
b110 E"
b0 0
b0 J
b10 i
b10 >"
b10 D"
b11111111111111111111111111111110 ,
b11111111111111111111111111111110 ("
b1100011 z
b1000 e
b1011 g
b1010 f
b0 h
b1100011 =
b1011 C"
b1010 B"
b1011 `
b1010 _
b11111110000000000000010011100011 u
b11111110000000000000010011100011 |
b101000 ;"
b101000 <"
b11100 Z
b11100 &"
b11100 @"
b11101 T
b11101 V
b11101 ""
b1 G
b1 Q
b1 ~
b1 +"
b1 1"
b11110 L
b11110 a
b11110 o
b11110 [
b11110 r
b11111111111111111111111111111110 n
b11111111111111111111111111111110 '"
b10 q
b10 *"
b101101010000010001100011 *
b101101010000010001100011 x
b101101010000010001100011 y
b101000 5
b101000 :"
b100000 +
b100000 6
b100000 w
b101000 8
b101000 9"
b100100 )
b100100 9
b100100 v
b100100 }
b100100 ="
b1001 $
1!
#475
0!
#500
b11111111111111111111111111101000 4
b1111111111111111111111111110100 k
b1111111111111111111111111110100 {
1:
1;
b0 i
b0 >"
b0 D"
b0 j
b0 ?"
b0 E"
b100 0
b100 J
b1001 e
b0 g
b0 f
b1111111000 h
b0 C"
b0 B"
b0 `
b0 _
b10 ,
b10 ("
b1001 /
b1001 3
b110 -
b110 -"
b110 /"
b10 O
b10 )"
b10 3"
b10 5"
b1 ."
b1 4"
b1 8"
b1 A"
b100100000010001000100011 u
b100100000010001000100011 |
b1100 ;"
b1100 <"
b11111110000000000000010011100011 *
b11111110000000000000010011100011 x
b11111110000000000000010011100011 y
b1100 5
b1100 :"
b100100 +
b100100 6
b100100 w
b1000 L
b1000 a
b1000 o
b1011 [
b1011 r
b1010 \
b1010 p
b0 1
b0 t
b100 n
b100 '"
b10 s
b10 0"
b110 q
b110 *"
b1 2
b1 l
0m
0K
b11110 T
b11110 V
b11110 ""
b0 G
b0 Q
b0 ~
b0 +"
b0 1"
b11101 Z
b11101 &"
b11101 @"
b1 #"
b1 6"
b101100 8
b101100 9"
b101000 )
b101000 9
b101000 v
b101000 }
b101000 ="
b1010 $
1!
#525
0!
#550
0:
b0 4
0<
b0 ?
b0 d
b0 k
b0 {
0.
b0 ,
b0 ("
b0 0
b0 J
b0 ."
b0 4"
b0 8"
b0 A"
b0 O
b0 )"
b0 3"
b0 5"
b0 -
b0 -"
b0 /"
b0 z
b0 e
b0 h
b0 =
b10000 ;"
b10000 <"
b10101101001000010010110011 u
b10101101001000010010110011 |
b11110 Z
b11110 &"
b11110 @"
b0 #"
b0 6"
b10 F
b10 R
b1000 T
b1000 V
b1000 ""
b100 G
b100 Q
b100 ~
b100 +"
b100 1"
0U
b1001 L
b1001 a
b1001 o
b0 [
b0 r
b0 \
b0 p
b1111111000 1
b1111111000 t
b1111111111111111111111111110100 n
b1111111111111111111111111110100 '"
b0 s
b0 0"
b0 q
b0 *"
b0 *
b0 x
b0 y
b0 5
b0 :"
b0 +
b0 6
b0 w
b10000 8
b10000 9"
b1100 )
b1100 9
b1100 v
b1100 }
b1100 ="
b1011 $
b1 %
1!
#575
0!
#600
b1010110 4
b10 ?
b10 d
1D
b101011 k
b101011 {
0;
b10 i
b10 >"
b10 D"
b1 j
b1 ?"
b1 E"
b110011 z
b1001 e
b1011 g
b1001 f
b1000 h
b110011 =
b1011 C"
b1001 B"
b1011 `
b1001 _
b110 /
b110 3
b100 ."
b100 4"
b100 8"
b100 A"
b101011000010110010011 u
b101011000010110010011 |
b10100 ;"
b10100 <"
b10101101001000010010110011 *
b10101101001000010010110011 x
b10101101001000010010110011 y
b1100010 5
b1100010 :"
b1100 +
b1100 6
b1100 w
b0 L
b0 a
b0 o
b0 1
b0 t
b0 n
b0 '"
b0 2
b0 l
b0 F
b0 R
b1001 T
b1001 V
b1001 ""
b0 G
b0 Q
b0 ~
b0 +"
b0 1"
b1000 Z
b1000 &"
b1000 @"
b100 #"
b100 6"
0Y
b10100 8
b10100 9"
b10000 )
b10000 9
b10000 v
b10000 }
b10000 ="
b1100 $
1!
#625
0!
#650
b10 4
1@
b0 ?
b0 d
b1 k
b1 {
b10 0
b10 J
1.
b10 ,
b10 ("
b0 i
b0 >"
b0 D"
b10 j
b10 ?"
b10 E"
b0 ."
b0 4"
b0 8"
b0 A"
b10 O
b10 )"
b10 3"
b10 5"
b1 -
b1 -"
b1 /"
b101 /
b101 3
b10011 z
b1011 e
b1 g
b1011 f
b0 h
b10011 =
b1 C"
b1011 B"
b1 `
b1011 _
b1011000111000010011 u
b1011000111000010011 |
b11000 ;"
b11000 <"
b1001 Z
b1001 &"
b1001 @"
b0 #"
b0 6"
b0 T
b0 V
b0 ""
b1001 L
b1001 a
b1001 o
b1011 [
b1011 r
b1001 \
b1001 p
b1000 1
b1000 t
b101011 n
b101011 '"
b10 s
b10 0"
b1 q
b1 *"
b10 2
b10 l
1K
b101011000010110010011 *
b101011000010110010011 x
b101011000010110010011 y
b10010 5
b10010 :"
b10000 +
b10000 6
b10000 w
b11000 8
b11000 9"
b10100 )
b10100 9
b10100 v
b10100 }
b10100 ="
b1101 $
1!
#675
0!
#700
b0 4
b0 k
b0 {
b11 0
b11 J
b1 ,
b1 ("
b11100 e
b0 g
b0 C"
b0 `
b110 /
b110 3
b10 -
b10 -"
b10 /"
b0 O
b0 )"
b0 3"
b0 5"
b11111111111101011000111010010011 u
b11111111111101011000111010010011 |
b11100 ;"
b11100 <"
b1011000111000010011 *
b1011000111000010011 x
b1011000111000010011 y
b10100 5
b10100 :"
b10100 +
b10100 6
b10100 w
b1011 L
b1011 a
b1011 o
b1 [
b1 r
b1011 \
b1011 p
b0 1
b0 t
b1 n
b1 '"
b0 s
b0 0"
b10 q
b10 *"
b0 2
b0 l
1m
b10 F
b10 R
b1001 T
b1001 V
b1001 ""
b10 G
b10 Q
b10 ~
b10 +"
b10 1"
1U
b0 Z
b0 &"
b0 @"
b11100 8
b11100 9"
b11000 )
b11000 9
b11000 v
b11000 }
b11000 ="
b1110 $
1!
#725
0!
#750
b11 -
b11 -"
b11 /"
b11111111111111111111111111111110 4
b10 W
b10 ,"
b10 ]
b11111111111111111111111111111111 k
b11111111111111111111111111111111 {
b11 0
b11 J
b10 ."
b10 4"
b10 8"
b10 A"
b0 ,
b0 ("
b11101 e
b11111 g
b1111111000 h
b11111 C"
b11111 `
b11111111111001011000111100010011 u
b11111111111001011000111100010011 |
b100000 ;"
b100000 <"
b1001 Z
b1001 &"
b1001 @"
b10 #"
b10 6"
1Y
b0 F
b0 R
b1011 T
b1011 V
b1011 ""
b11 G
b11 Q
b11 ~
b11 +"
b11 1"
b11100 L
b11100 a
b11100 o
b0 [
b0 r
b0 n
b0 '"
b11111111111101011000111010010011 *
b11111111111101011000111010010011 x
b11111111111101011000111010010011 y
b10110 5
b10110 :"
b11000 +
b11000 6
b11000 w
b100000 8
b100000 9"
b11100 )
b11100 9
b11100 v
b11100 }
b11100 ="
b1111 $
1!
#775
0!
#800
b11111111111111111111111111111100 4
b11111111111111111111111111111110 k
b11111111111111111111111111111110 {
b1 W
b1 ,"
b1 ]
b10 0
b10 J
b11 j
b11 ?"
b11 E"
b11110 e
b11110 g
b11110 C"
b11110 `
b11111111111111111111111111111111 ,
b11111111111111111111111111111111 ("
b11 ."
b11 4"
b11 8"
b11 A"
b101101010000010001100011 u
b101101010000010001100011 |
b100100 ;"
b100100 <"
b11111111111001011000111100010011 *
b11111111111001011000111100010011 x
b11111111111001011000111100010011 y
b11000 5
b11000 :"
b11100 +
b11100 6
b11100 w
b11101 L
b11101 a
b11101 o
b11111 [
b11111 r
b1111111000 1
b1111111000 t
b11111111111111111111111111111111 n
b11111111111111111111111111111111 '"
b11100 T
b11100 V
b11100 ""
b1011 Z
b1011 &"
b1011 @"
b11 #"
b11 6"
b100100 8
b100100 9"
b100000 )
b100000 9
b100000 v
b100000 }
b100000 ="
b10000 $
1!
#825
0!
#850
b1000 4
1<
0@
b1 ?
b1 d
0D
b0 W
b0 ,"
b0 ]
b100 k
b100 {
b110 j
b110 ?"
b110 E"
b1 0
b1 J
b11 i
b11 >"
b11 D"
b11111111111111111111111111111110 ,
b11111111111111111111111111111110 ("
b1100011 z
b1000 e
b1011 g
b1010 f
b0 h
b1100011 =
b1011 C"
b1010 B"
b1011 `
b1010 _
b11111110000000000000010011100011 u
b11111110000000000000010011100011 |
b101000 ;"
b101000 <"
b11100 Z
b11100 &"
b11100 @"
b11101 T
b11101 V
b11101 ""
b10 G
b10 Q
b10 ~
b10 +"
b10 1"
b11110 L
b11110 a
b11110 o
b11110 [
b11110 r
b11111111111111111111111111111110 n
b11111111111111111111111111111110 '"
b11 q
b11 *"
b101101010000010001100011 *
b101101010000010001100011 x
b101101010000010001100011 y
b101000 5
b101000 :"
b100000 +
b100000 6
b100000 w
b101000 8
b101000 9"
b100100 )
b100100 9
b100100 v
b100100 }
b100100 ="
b10001 $
1!
#875
0!
#900
b11111111111111111111111111101000 4
b1111111111111111111111111110100 k
b1111111111111111111111111110100 {
1:
1;
b0 i
b0 >"
b0 D"
b0 j
b0 ?"
b0 E"
b11 0
b11 J
b1001 e
b0 g
b0 f
b1111111000 h
b0 C"
b0 B"
b0 `
b0 _
b11 ,
b11 ("
b1001 /
b1001 3
b110 -
b110 -"
b110 /"
b11 O
b11 )"
b11 3"
b11 5"
b10 ."
b10 4"
b10 8"
b10 A"
b100100000010001000100011 u
b100100000010001000100011 |
b1100 ;"
b1100 <"
b11111110000000000000010011100011 *
b11111110000000000000010011100011 x
b11111110000000000000010011100011 y
b1100 5
b1100 :"
b100100 +
b100100 6
b100100 w
b1000 L
b1000 a
b1000 o
b1011 [
b1011 r
b1010 \
b1010 p
b0 1
b0 t
b100 n
b100 '"
b11 s
b11 0"
b110 q
b110 *"
b1 2
b1 l
0m
0K
b11110 T
b11110 V
b11110 ""
b1 G
b1 Q
b1 ~
b1 +"
b1 1"
b11101 Z
b11101 &"
b11101 @"
b10 #"
b10 6"
b101100 8
b101100 9"
b101000 )
b101000 9
b101000 v
b101000 }
b101000 ="
b10010 $
1!
#925
0!
#950
0:
b0 4
0<
b0 ?
b0 d
b0 k
b0 {
0.
b0 ,
b0 ("
b0 0
b0 J
b1 ."
b1 4"
b1 8"
b1 A"
b0 O
b0 )"
b0 3"
b0 5"
b0 -
b0 -"
b0 /"
b0 z
b0 e
b0 h
b0 =
b10000 ;"
b10000 <"
b10101101001000010010110011 u
b10101101001000010010110011 |
b11110 Z
b11110 &"
b11110 @"
b1 #"
b1 6"
b11 F
b11 R
b1000 T
b1000 V
b1000 ""
b11 G
b11 Q
b11 ~
b11 +"
b11 1"
0U
b1001 L
b1001 a
b1001 o
b0 [
b0 r
b0 \
b0 p
b1111111000 1
b1111111000 t
b1111111111111111111111111110100 n
b1111111111111111111111111110100 '"
b0 s
b0 0"
b0 q
b0 *"
b0 *
b0 x
b0 y
b0 5
b0 :"
b0 +
b0 6
b0 w
b10000 8
b10000 9"
b1100 )
b1100 9
b1100 v
b1100 }
b1100 ="
b10011 $
b10 %
1!
#975
0!
#1000
b1010110 4
b10 ?
b10 d
1D
b101011 k
b101011 {
0;
b11 i
b11 >"
b11 D"
b10 j
b10 ?"
b10 E"
b110011 z
b1001 e
b1011 g
b1001 f
b1000 h
b110011 =
b1011 C"
b1001 B"
b1011 `
b1001 _
b110 /
b110 3
b11 ."
b11 4"
b11 8"
b11 A"
b101011000010110010011 u
b101011000010110010011 |
b10100 ;"
b10100 <"
b10101101001000010010110011 *
b10101101001000010010110011 x
b10101101001000010010110011 y
b1100010 5
b1100010 :"
b1100 +
b1100 6
b1100 w
b0 L
b0 a
b0 o
b0 1
b0 t
b0 n
b0 '"
b0 2
b0 l
b0 F
b0 R
b1001 T
b1001 V
b1001 ""
b0 G
b0 Q
b0 ~
b0 +"
b0 1"
b1000 Z
b1000 &"
b1000 @"
b11 #"
b11 6"
0Y
b10100 8
b10100 9"
b10000 )
b10000 9
b10000 v
b10000 }
b10000 ="
b10100 $
1!
#1025
0!
#1050
b10 4
1@
b0 ?
b0 d
b1 k
b1 {
b110 0
b110 J
1.
b11 ,
b11 ("
b0 i
b0 >"
b0 D"
b11 j
b11 ?"
b11 E"
b0 ."
b0 4"
b0 8"
b0 A"
b11 O
b11 )"
b11 3"
b11 5"
b10 -
b10 -"
b10 /"
b101 /
b101 3
b10011 z
b1011 e
b1 g
b1011 f
b0 h
b10011 =
b1 C"
b1011 B"
b1 `
b1011 _
b1011000111000010011 u
b1011000111000010011 |
b11000 ;"
b11000 <"
b1001 Z
b1001 &"
b1001 @"
b0 #"
b0 6"
b0 T
b0 V
b0 ""
b1001 L
b1001 a
b1001 o
b1011 [
b1011 r
b1001 \
b1001 p
b1000 1
b1000 t
b101011 n
b101011 '"
b11 s
b11 0"
b10 q
b10 *"
b10 2
b10 l
1K
b101011000010110010011 *
b101011000010110010011 x
b101011000010110010011 y
b10010 5
b10010 :"
b10000 +
b10000 6
b10000 w
b11000 8
b11000 9"
b10100 )
b10100 9
b10100 v
b10100 }
b10100 ="
b10101 $
1!
#1075
0!
#1100
b0 4
b0 k
b0 {
b100 0
b100 J
b1 ,
b1 ("
b11100 e
b0 g
b0 C"
b0 `
b110 /
b110 3
b11 -
b11 -"
b11 /"
b0 O
b0 )"
b0 3"
b0 5"
b11111111111101011000111010010011 u
b11111111111101011000111010010011 |
b11100 ;"
b11100 <"
b1011000111000010011 *
b1011000111000010011 x
b1011000111000010011 y
b10100 5
b10100 :"
b10100 +
b10100 6
b10100 w
b1011 L
b1011 a
b1011 o
b1 [
b1 r
b1011 \
b1011 p
b0 1
b0 t
b1 n
b1 '"
b0 s
b0 0"
b11 q
b11 *"
b0 2
b0 l
1m
b11 F
b11 R
b1001 T
b1001 V
b1001 ""
b110 G
b110 Q
b110 ~
b110 +"
b110 1"
1U
b0 Z
b0 &"
b0 @"
b11100 8
b11100 9"
b11000 )
b11000 9
b11000 v
b11000 }
b11000 ="
b10110 $
1!
#1125
0!
